[
    "(◕‿◕✿)",
    "(◕ᴗ◕✿)",
    "(◕◡◕✿)",
    "(◔◡◔✿)",
    "(◡‿◡✿)",
    "(◠‿◠✿)",
    "(◕ ω ◕✿)",
    "(◕ܫ◕✿)",
    "(◕▿◕✿)",
    "(◕ ワ ◕✿)",
    "(◕▽◕✿)",
    "(◕∇◕✿)",
    "(◕∀◕✿)",
    "(◕▿◕✿)",
    "(◕ ꒳ ◕✿)",
    "(´ ꒳ ` ✿)",
    "(ᅌᴗᅌ✿)",
    "（＾－＾✿）",
    "(・ω ・✿)",
    "(❦ᴗ❦✿)",
    "(ó ꒳ ò✿)",
    "(´ ᴗ｀✿)",
    "(◕__◕✿)",
    "(◕︿◕✿)",
    "(◕ㅅ◕✿)",
    "(◕д◕✿)",
    "(◕ㅁ◕✿)",
    "(◕‸ ◕✿) *pout* ",
    "(◕⍸ ◕✿)",
    "(🌼❛ ֊ ❛„)",
    "(╯°□°）╯︵ ✿",
    "(┛◉Д◉)┛彡✿",
    "(ﾉ≧∇≦)ﾉ ﾐ ✿ *tee-hee*",
    "(ノಠ益ಠ)ノ彡✿",
    "(╯ರ ~ ರ）╯︵ ✿",
    "(ﾉ´･ω･)ﾉ ﾐ ✿",
    "(┛✧Д✧)┛彡✿",
    "✿ ︵ヽ(`Д´)ﾉ︵﻿ ✿",
    "ᕕ(⌐■_■)ᕗ ♪♬",
    "(つ≧▽≦)つ",
    "⊂(・ヮ・⊂)",
    "(✿ ♥‿♥)",
    "(✿ ◕‿◕)ᓄ✂ ✿",
    "(つ≧▽≦)つ︻デ┳═ー︵✿ *flower gun!! ratatatatat!!!*"
]