[
  ["span[class*='author']", "text"],
  ["p[class*='author']", "text"],
  ["div[class*='author']", "text"],
  ["span[class*='byline']", "text"],
  ["p[class*='byline']", "text"],
  ["div[class*='byline']", "text"],
  ["meta[property='article:author']", "content"],
  ["meta[property='og:article:author']", "content"],
  ["meta[name='author']", "content"],
  ["meta[name='dcterms.creator']", "content"],
  ["meta[name='DC.creator']", "content"],
  ["meta[name='DC.Creator']", "content"],
  ["meta[name='dc.creator']", "content"],
  ["meta[name='creator']", "content"]
]
