[
  {"site": "birthmoviesdeath\\.com",     "query": ".Article-author"},
  {"site": "breitbart\\.com",            "query": "footer.byline address", "attribute": "data-aname"},
  {"site": "buzzfeed\\.com",             "query": ".byline a"},
  {"site": "dailydot\\.com",             "query": ".dd-article-authors-link span"},
  {"site": "destructoid.com",            "query": "#posttop_byline"},
  {"site": "engadget\\.com",             "query": ".t-meta-small\\@s > a:nth-child(1)"},
  {"site": "escapistmagazine\\.com",     "query": ".by a span"},
  {"site": "eurogamer\\.net",            "query": ".byline a"},
  {"site": "financialpost\\.com",        "query": ".author-wrap"},
  {"site": "gameplanet\\.com\\.(au|nz)", "query": ".author"},
  {"site": "gamesradar\\.com",           "query": ".by-author [itemprop=name]"},
  {"site": "ibtimes\\.co\\.uk",          "query": ".reporter-name :nth-child(1)"},
  {"site": "indiegames\\.com",           "query": ".posted .fn.url"},
  {"site": "indiehaven\\.com",           "query": ".cb-title-fi .cb-author a"},
  {"site": "kotaku\\.com",               "query": ".author"},
  {"site": "kotaku\\.co\\.uk",           "query": ".single-article .is-author"},
  {"site": "news\\.com\\.au",            "query": ".author-info .name"},
  {"site": "nichegamer\\.com",           "query": ".article-meta a[rel=author]"},
  {"site": "oneangrygamer\\.net",        "query": "[rel=author]"},
  {"site": "pcgamer\\.com",              "query": "[itemprop=author] [itemprop=name]"},
  {"site": "polygon\\.com",              "query": ".c-entry-hero .c-byline span a"},
  {"site": "polygon\\.com",              "query": "header .byline a"},
  {"site": "rockpapershotgun\\.com",     "query": ".byline"},
  {"site": "spiked-online\\.com",        "query": "#authorNameJob a"},
  {"site": "techradar\\.com",            "query": ".by-author [itemprop=name]"},
  {"site": "thedailybeast\\.com",        "query": ".ArticleAuthor__name"},
  {"site": "thedailybeast\\.com",        "query": ".author-name :nth-child(1)"},
  {"site": "theguardian\\.com",          "query": ".byline"},
  {"site": "theguardian\\.com",          "query": "[itemprop=author] [itemprop=name]"},
  {"site": "themarysue\\.com",           "query": "[rel=author]"},
  {"site": "theverge\\.com",             "query": ".c-entry-hero__header-wrap + .c-byline"},
  {"site": "theverge\\.com",             "query": ".c-entry-summary + .c-byline span"},
  {"site": "unwinnable\\.com",           "query": ".author"},
  {"site": "usgamer\\.net",              "query": ".author a"},
  {"site": "vg247\\.com",                "query": "header .meta"},
  {"site": "wired\\.com",                "query": ".byline-mob"},
  {"site": "xboxachievements\\.com",     "query": "[itemprop=author] [itemprop=name]"}
]
